\relax 
\providecommand\hyper@newdestlabel[2]{}
\providecommand\HyperFirstAtBeginDocument{\AtBeginDocument}
\HyperFirstAtBeginDocument{\ifx\hyper@anchor\@undefined
\global\let\oldcontentsline\contentsline
\gdef\contentsline#1#2#3#4{\oldcontentsline{#1}{#2}{#3}}
\global\let\oldnewlabel\newlabel
\gdef\newlabel#1#2{\newlabelxx{#1}#2}
\gdef\newlabelxx#1#2#3#4#5#6{\oldnewlabel{#1}{{#2}{#3}}}
\AtEndDocument{\ifx\hyper@anchor\@undefined
\let\contentsline\oldcontentsline
\let\newlabel\oldnewlabel
\fi}
\fi}
\global\let\hyper@last\relax 
\gdef\HyperFirstAtBeginDocument#1{#1}
\providecommand\HyField@AuxAddToFields[1]{}
\providecommand\HyField@AuxAddToCoFields[2]{}
\catcode `"\active 
\catcode `-\active 
\@writefile{toc}{\beamer@endinputifotherversion {3.32pt}}
\@writefile{nav}{\beamer@endinputifotherversion {3.32pt}}
\select@language{czech}
\@writefile{toc}{\select@language{czech}}
\@writefile{lof}{\select@language{czech}}
\@writefile{lot}{\select@language{czech}}
\@writefile{nav}{\headcommand {\slideentry {0}{0}{1}{1/1}{}{0}}}
\@writefile{nav}{\headcommand {\beamer@framepages {1}{1}}}
\@writefile{nav}{\headcommand {\slideentry {0}{0}{2}{2/5}{}{0}}}
\@writefile{nav}{\headcommand {\beamer@framepages {2}{5}}}
\@writefile{nav}{\headcommand {\slideentry {0}{0}{3}{6/10}{}{0}}}
\@writefile{nav}{\headcommand {\beamer@framepages {6}{10}}}
\@writefile{nav}{\headcommand {\slideentry {0}{0}{4}{11/16}{}{0}}}
\@writefile{nav}{\headcommand {\beamer@framepages {11}{16}}}
\@writefile{nav}{\headcommand {\beamer@partpages {1}{16}}}
\@writefile{nav}{\headcommand {\beamer@subsectionpages {1}{16}}}
\@writefile{nav}{\headcommand {\beamer@sectionpages {1}{16}}}
\@writefile{nav}{\headcommand {\beamer@documentpages {16}}}
\@writefile{nav}{\headcommand {\def \inserttotalframenumber {4}}}
