\beamer@endinputifotherversion {3.24pt}
\select@language {czech}
\beamer@sectionintoc {1}{C\IeC {\'\i }le projektu a motivace}{2}{0}{1}
\beamer@sectionintoc {2}{P\IeC {\v r}edstaven\IeC {\'\i } aplikace}{4}{0}{2}
\beamer@sectionintoc {3}{Zhodnocen\IeC {\'\i } a z\IeC {\'a}v\IeC {\v e}r}{17}{0}{3}
