\relax 
\providecommand\hyper@newdestlabel[2]{}
\providecommand\HyperFirstAtBeginDocument{\AtBeginDocument}
\HyperFirstAtBeginDocument{\ifx\hyper@anchor\@undefined
\global\let\oldcontentsline\contentsline
\gdef\contentsline#1#2#3#4{\oldcontentsline{#1}{#2}{#3}}
\global\let\oldnewlabel\newlabel
\gdef\newlabel#1#2{\newlabelxx{#1}#2}
\gdef\newlabelxx#1#2#3#4#5#6{\oldnewlabel{#1}{{#2}{#3}}}
\AtEndDocument{\ifx\hyper@anchor\@undefined
\let\contentsline\oldcontentsline
\let\newlabel\oldnewlabel
\fi}
\fi}
\global\let\hyper@last\relax 
\gdef\HyperFirstAtBeginDocument#1{#1}
\providecommand\HyField@AuxAddToFields[1]{}
\providecommand\HyField@AuxAddToCoFields[2]{}
\catcode `"\active 
\catcode `-\active 
\@writefile{toc}{\beamer@endinputifotherversion {3.24pt}}
\@writefile{nav}{\beamer@endinputifotherversion {3.24pt}}
\select@language{czech}
\@writefile{toc}{\select@language{czech}}
\@writefile{lof}{\select@language{czech}}
\@writefile{lot}{\select@language{czech}}
\@writefile{nav}{\headcommand {\slideentry {0}{0}{1}{1/1}{}{0}}}
\@writefile{nav}{\headcommand {\beamer@framepages {1}{1}}}
\@writefile{toc}{\beamer@sectionintoc {1}{C\IeC {\'\i }le projektu a motivace}{2}{0}{1}}
\@writefile{nav}{\headcommand {\sectionentry {1}{C\IeC {\'\i }le projektu a motivace}{2}{C\IeC {\'\i }le projektu a motivace}{0}}}
\@writefile{nav}{\headcommand {\beamer@sectionpages {1}{1}}}
\@writefile{nav}{\headcommand {\beamer@subsectionpages {1}{1}}}
\@writefile{nav}{\headcommand {\slideentry {1}{0}{2}{2/2}{}{0}}}
\@writefile{nav}{\headcommand {\beamer@framepages {2}{2}}}
\@writefile{nav}{\headcommand {\slideentry {1}{0}{3}{3/3}{}{0}}}
\@writefile{nav}{\headcommand {\beamer@framepages {3}{3}}}
\@writefile{toc}{\beamer@sectionintoc {2}{P\IeC {\v r}edstaven\IeC {\'\i } aplikace}{4}{0}{2}}
\@writefile{nav}{\headcommand {\sectionentry {2}{P\IeC {\v r}edstaven\IeC {\'\i } aplikace}{4}{P\IeC {\v r}edstaven\IeC {\'\i } aplikace}{0}}}
\@writefile{nav}{\headcommand {\beamer@sectionpages {2}{3}}}
\@writefile{nav}{\headcommand {\beamer@subsectionpages {2}{3}}}
\@writefile{nav}{\headcommand {\slideentry {2}{0}{4}{4/9}{}{0}}}
\@writefile{nav}{\headcommand {\beamer@framepages {4}{9}}}
\@writefile{nav}{\headcommand {\slideentry {2}{0}{5}{10/10}{}{0}}}
\@writefile{nav}{\headcommand {\beamer@framepages {10}{10}}}
\@writefile{nav}{\headcommand {\slideentry {2}{0}{6}{11/11}{}{0}}}
\@writefile{nav}{\headcommand {\beamer@framepages {11}{11}}}
\@writefile{nav}{\headcommand {\slideentry {2}{0}{7}{12/12}{}{0}}}
\@writefile{nav}{\headcommand {\beamer@framepages {12}{12}}}
\@writefile{nav}{\headcommand {\slideentry {2}{0}{8}{13/13}{}{0}}}
\@writefile{nav}{\headcommand {\beamer@framepages {13}{13}}}
\@writefile{nav}{\headcommand {\slideentry {2}{0}{9}{14/14}{}{0}}}
\@writefile{nav}{\headcommand {\beamer@framepages {14}{14}}}
\@writefile{nav}{\headcommand {\slideentry {2}{0}{10}{15/15}{}{0}}}
\@writefile{nav}{\headcommand {\beamer@framepages {15}{15}}}
\@writefile{nav}{\headcommand {\slideentry {2}{0}{11}{16/16}{}{0}}}
\@writefile{nav}{\headcommand {\beamer@framepages {16}{16}}}
\@writefile{toc}{\beamer@sectionintoc {3}{Zhodnocen\IeC {\'\i } a z\IeC {\'a}v\IeC {\v e}r}{17}{0}{3}}
\@writefile{nav}{\headcommand {\sectionentry {3}{Zhodnocen\IeC {\'\i } a z\IeC {\'a}v\IeC {\v e}r}{17}{Zhodnocen\IeC {\'\i } a z\IeC {\'a}v\IeC {\v e}r}{0}}}
\@writefile{nav}{\headcommand {\beamer@sectionpages {4}{16}}}
\@writefile{nav}{\headcommand {\beamer@subsectionpages {4}{16}}}
\@writefile{nav}{\headcommand {\slideentry {3}{0}{12}{17/17}{}{0}}}
\@writefile{nav}{\headcommand {\beamer@framepages {17}{17}}}
\@writefile{nav}{\headcommand {\slideentry {3}{0}{13}{18/18}{}{0}}}
\@writefile{nav}{\headcommand {\beamer@framepages {18}{18}}}
\@writefile{nav}{\headcommand {\slideentry {3}{0}{14}{19/19}{}{0}}}
\@writefile{nav}{\headcommand {\beamer@framepages {19}{19}}}
\@writefile{nav}{\headcommand {\slideentry {3}{0}{15}{20/20}{}{0}}}
\@writefile{nav}{\headcommand {\beamer@framepages {20}{20}}}
\@writefile{nav}{\headcommand {\slideentry {3}{0}{16}{21/21}{}{0}}}
\@writefile{nav}{\headcommand {\beamer@framepages {21}{21}}}
\@writefile{nav}{\headcommand {\slideentry {3}{0}{17}{22/22}{}{0}}}
\@writefile{nav}{\headcommand {\beamer@framepages {22}{22}}}
\@writefile{nav}{\headcommand {\slideentry {3}{0}{18}{23/23}{}{0}}}
\@writefile{nav}{\headcommand {\beamer@framepages {23}{23}}}
\@writefile{nav}{\headcommand {\beamer@partpages {1}{23}}}
\@writefile{nav}{\headcommand {\beamer@subsectionpages {17}{23}}}
\@writefile{nav}{\headcommand {\beamer@sectionpages {17}{23}}}
\@writefile{nav}{\headcommand {\beamer@documentpages {23}}}
\@writefile{nav}{\headcommand {\def \inserttotalframenumber {18}}}
