\relax 
\providecommand\hyper@newdestlabel[2]{}
\catcode `"\active 
\catcode `-\active 
\providecommand\HyperFirstAtBeginDocument{\AtBeginDocument}
\HyperFirstAtBeginDocument{\ifx\hyper@anchor\@undefined
\global\let\oldcontentsline\contentsline
\gdef\contentsline#1#2#3#4{\oldcontentsline{#1}{#2}{#3}}
\global\let\oldnewlabel\newlabel
\gdef\newlabel#1#2{\newlabelxx{#1}#2}
\gdef\newlabelxx#1#2#3#4#5#6{\oldnewlabel{#1}{{#2}{#3}}}
\AtEndDocument{\ifx\hyper@anchor\@undefined
\let\contentsline\oldcontentsline
\let\newlabel\oldnewlabel
\fi}
\fi}
\global\let\hyper@last\relax 
\gdef\HyperFirstAtBeginDocument#1{#1}
\providecommand\HyField@AuxAddToFields[1]{}
\providecommand\HyField@AuxAddToCoFields[2]{}
\providecommand\@newglossary[4]{}
\@newglossary{main}{glg}{gls}{glo}
\@newglossary{acronym}{alg}{acr}{acn}
\providecommand\@glsorder[1]{}
\providecommand\@istfilename[1]{}
\@istfilename{bp_madera.ist}
\@glsorder{word}
\select@language{czech}
\@writefile{toc}{\select@language{czech}}
\@writefile{lof}{\select@language{czech}}
\@writefile{lot}{\select@language{czech}}
\@writefile{toc}{\contentsline {section}{\numberline {1}\IeC {\'U}vod}{9}{section.1}}
\@writefile{toc}{\contentsline {section}{\numberline {2}Anal\IeC {\'y}za st\IeC {\'a}vaj\IeC {\'\i }c\IeC {\'\i }ho stavu}{10}{section.2}}
\newlabel{analyza}{{2}{10}{Analýza stávajícího stavu}{section.2}{}}
\@writefile{toc}{\contentsline {subsection}{\numberline {2.1}Zad\IeC {\'a}v\IeC {\'a}n\IeC {\'\i } t\IeC {\'e}mat}{10}{subsection.2.1}}
\@writefile{lof}{\contentsline {figure}{\numberline {1}{\ignorespaces Aktu\IeC {\'a}ln\IeC {\'\i } stav zad\IeC {\'a}v\IeC {\'a}n\IeC {\'\i } t\IeC {\'e}mat}}{10}{figure.1}}
\newlabel{fig:zadavani-temat-old}{{1}{10}{Aktuální stav zadávání témat}{figure.1}{}}
\@writefile{toc}{\contentsline {subsection}{\numberline {2.2}V\IeC {\'y}b\IeC {\v e}r t\IeC {\'e}mat}{11}{subsection.2.2}}
\@writefile{lof}{\contentsline {figure}{\numberline {2}{\ignorespaces Aktu\IeC {\'a}ln\IeC {\'\i } stav vyb\IeC {\'\i }r\IeC {\'a}n\IeC {\'\i } t\IeC {\'e}mat}}{11}{figure.2}}
\newlabel{fig:vybirani-temat-old}{{2}{11}{Aktuální stav vybírání témat}{figure.2}{}}
\@writefile{lof}{\contentsline {figure}{\numberline {3}{\ignorespaces Aktu\IeC {\'a}ln\IeC {\'\i } stav dokon\IeC {\v c}en\IeC {\'\i } zad\IeC {\'a}v\IeC {\'a}n\IeC {\'\i }}}{12}{figure.3}}
\newlabel{fig:dokonceni-zadavani-old}{{3}{12}{Aktuální stav dokončení zadávání}{figure.3}{}}
\@writefile{toc}{\contentsline {subsection}{\numberline {2.3}Dokon\IeC {\v c}en\IeC {\'\i } zad\IeC {\'a}v\IeC {\'a}n\IeC {\'\i } a~export ofici\IeC {\'a}ln\IeC {\'\i }ch zad\IeC {\'a}n\IeC {\'\i }}{12}{subsection.2.3}}
\@writefile{toc}{\contentsline {subsection}{\numberline {2.4}Shrnut\IeC {\'\i }}{12}{subsection.2.4}}
\@writefile{toc}{\contentsline {section}{\numberline {3}N\IeC {\'a}vrh na \IeC {\v r}e\IeC {\v s}en\IeC {\'\i }}{13}{section.3}}
\newlabel{navrh}{{3}{13}{Návrh na řešení}{section.3}{}}
\@writefile{toc}{\contentsline {subsection}{\numberline {3.1}Proces automatizace}{13}{subsection.3.1}}
\newlabel{automatizace}{{3.1}{13}{Proces automatizace}{subsection.3.1}{}}
\newlabel{proces-automatizace}{{3.1}{13}{Proces automatizace}{subsection.3.1}{}}
\@writefile{toc}{\contentsline {subsubsection}{\numberline {3.1.1}Zad\IeC {\'a}v\IeC {\'a}n\IeC {\'\i } t\IeC {\'e}mat}{13}{subsubsection.3.1.1}}
\@writefile{lof}{\contentsline {figure}{\numberline {4}{\ignorespaces Automatizovan\IeC {\'e} zad\IeC {\'a}v\IeC {\'a}n\IeC {\'\i } t\IeC {\'e}mat}}{13}{figure.4}}
\newlabel{fig:zadavani-temat}{{4}{13}{Automatizované zadávání témat}{figure.4}{}}
\@writefile{toc}{\contentsline {subsubsection}{\numberline {3.1.2}V\IeC {\'y}b\IeC {\v e}r t\IeC {\'e}mat}{14}{subsubsection.3.1.2}}
\@writefile{lof}{\contentsline {figure}{\numberline {5}{\ignorespaces Automatizovan\IeC {\'e} vyb\IeC {\'\i }r\IeC {\'a}n\IeC {\'\i } t\IeC {\'e}mat}}{15}{figure.5}}
\newlabel{fig:vybirani-temat}{{5}{15}{Automatizované vybírání témat}{figure.5}{}}
\@writefile{toc}{\contentsline {subsubsection}{\numberline {3.1.3}Dokon\IeC {\v c}en\IeC {\'\i } zad\IeC {\'a}v\IeC {\'a}n\IeC {\'\i } a~export ofici\IeC {\'a}ln\IeC {\'\i }ch zad\IeC {\'a}n\IeC {\'\i }}{15}{subsubsection.3.1.3}}
\@writefile{toc}{\contentsline {subsubsection}{\numberline {3.1.4}Shrnut\IeC {\'\i }}{15}{subsubsection.3.1.4}}
\@writefile{lof}{\contentsline {figure}{\numberline {6}{\ignorespaces Automatizovan\IeC {\'e} dokon\IeC {\v c}en\IeC {\'\i } zad\IeC {\'a}v\IeC {\'a}n\IeC {\'\i }}}{16}{figure.6}}
\newlabel{fig:dokonceni-zadavani}{{6}{16}{Automatizované dokončení zadávání}{figure.6}{}}
\citation{5EKmCBUoyUxNVwii}
\@writefile{toc}{\contentsline {subsection}{\numberline {3.2}V\IeC {\'y}b\IeC {\v e}r technologi\IeC {\'\i }}{17}{subsection.3.2}}
\newlabel{technologie}{{3.2}{17}{Výběr technologií}{subsection.3.2}{}}
\@writefile{toc}{\contentsline {subsubsection}{\numberline {3.2.1}V\IeC {\'y}b\IeC {\v e}r aplika\IeC {\v c}n\IeC {\'\i }ho frameworku}{17}{subsubsection.3.2.1}}
\@writefile{toc}{\contentsline {subsubsection}{\numberline {3.2.2}CakePHP}{17}{subsubsection.3.2.2}}
\citation{V89bVFrkxtnQJ35T}
\citation{frameworks}
\citation{X83Z8mWwxXkYTuWr}
\citation{o463FSQnp332ko0C}
\newlabel{porovnani-nette-zend}{{3.2.2}{18}{CakePHP}{subsubsection.3.2.2}{}}
\@writefile{toc}{\contentsline {subsubsection}{\numberline {3.2.3}Porovn\IeC {\'a}n\IeC {\'\i } CakePHP s~Nette a~Zend}{18}{subsubsection.3.2.3}}
\@writefile{lot}{\contentsline {table}{\numberline {1}{\ignorespaces Srovn\IeC {\'a}n\IeC {\'\i } k\IeC {\'o}dov\IeC {\'e} rozs\IeC {\'a}hlosti - p\IeC {\v r}ihla\IeC {\v s}ovac\IeC {\'\i } formul\IeC {\'a}\IeC {\v r}}}{18}{table.1}}
\newlabel{tab:zend-cake-pocet-radku}{{1}{18}{Srovnání kódové rozsáhlosti - přihlašovací formulář}{table.1}{}}
\@writefile{lot}{\contentsline {table}{\numberline {2}{\ignorespaces Srovn\IeC {\'a}n\IeC {\'\i } k\IeC {\'o}dov\IeC {\'e} rozs\IeC {\'a}hlosti - zpracov\IeC {\'a}n\IeC {\'\i } formul\IeC {\'a}\IeC {\v r}e}}{18}{table.2}}
\newlabel{tab:zend-cake-pocet-radku1}{{2}{18}{Srovnání kódové rozsáhlosti - zpracování formuláře}{table.2}{}}
\citation{JUo3Sp5xNosLOVuE}
\@writefile{toc}{\contentsline {subsubsection}{\numberline {3.2.4}Twitter Bootstrap}{19}{subsubsection.3.2.4}}
\newlabel{twitter-bootstrap}{{3.2.4}{19}{Twitter Bootstrap}{subsubsection.3.2.4}{}}
\@writefile{toc}{\contentsline {subsubsection}{\numberline {3.2.5}JQuery}{19}{subsubsection.3.2.5}}
\citation{vTQWYgiBXnXc7yLv}
\@writefile{toc}{\contentsline {section}{\numberline {4}Realizace aplikace}{20}{section.4}}
\newlabel{realizace}{{4}{20}{Realizace aplikace}{section.4}{}}
\@writefile{toc}{\contentsline {subsection}{\numberline {4.1}Metodika v\IeC {\'y}voje aplikace}{20}{subsection.4.1}}
\newlabel{metodika}{{4.1}{20}{Metodika vývoje aplikace}{subsection.4.1}{}}
\@writefile{toc}{\contentsline {subsection}{\numberline {4.2}U\IeC {\v z}ivatelsk\IeC {\'e} rozhran\IeC {\'\i }}{20}{subsection.4.2}}
\newlabel{uzivatelske-rozhrani}{{4.2}{20}{Uživatelské rozhraní}{subsection.4.2}{}}
\@writefile{lof}{\contentsline {figure}{\numberline {7}{\ignorespaces Use Case diagram funkc\IeC {\'\i } aplikace}}{21}{figure.7}}
\newlabel{fig:usecase}{{7}{21}{Use Case diagram funkcí aplikace}{figure.7}{}}
\@writefile{toc}{\contentsline {subsubsection}{\numberline {4.2.1}Responzivn\IeC {\'\i } design}{21}{subsubsection.4.2.1}}
\@writefile{toc}{\contentsline {subsection}{\numberline {4.3}Datab\IeC {\'a}zov\IeC {\'y} model}{21}{subsection.4.3}}
\newlabel{databaze-cakephp}{{4.3}{21}{Databázový model}{subsection.4.3}{}}
\citation{5EKmCBUoyUxNVwii}
\@writefile{lof}{\contentsline {figure}{\numberline {8}{\ignorespaces Uk\IeC {\'a}zka \IeC {\v c}\IeC {\'a}sti datab\IeC {\'a}zov\IeC {\'e}ho modelu}}{22}{figure.8}}
\newlabel{fig:model}{{8}{22}{Ukázka části databázového modelu}{figure.8}{}}
\@writefile{toc}{\contentsline {subsection}{\numberline {4.4}Aplika\IeC {\v c}n\IeC {\'\i } framework}{23}{subsection.4.4}}
\@writefile{toc}{\contentsline {subsubsection}{\numberline {4.4.1}Zpracov\IeC {\'a}n\IeC {\'\i } po\IeC {\v z}adavku}{23}{subsubsection.4.4.1}}
\@writefile{lof}{\contentsline {figure}{\numberline {9}{\ignorespaces Zpracov\IeC {\'a}n\IeC {\'\i } po\IeC {\v z}adavku}}{23}{figure.9}}
\newlabel{fig:request}{{9}{23}{Zpracování požadavku}{figure.9}{}}
\@writefile{toc}{\contentsline {subsubsection}{\numberline {4.4.2}Konfigurace CakePHP}{23}{subsubsection.4.4.2}}
\citation{5EKmCBUoyUxNVwii}
\citation{Gilmore2007}
\@writefile{toc}{\contentsline {subsubsection}{\numberline {4.4.3}Konvence a~n\IeC {\'a}zvoslov\IeC {\'\i }}{24}{subsubsection.4.4.3}}
\@writefile{toc}{\contentsline {subsection}{\numberline {4.5}MVC a~adres\IeC {\'a}\IeC {\v r}ov\IeC {\'a} struktura}{24}{subsection.4.5}}
\newlabel{mvc-struktura}{{4.5}{24}{MVC a~adresářová struktura}{subsection.4.5}{}}
\@writefile{lof}{\contentsline {figure}{\numberline {10}{\ignorespaces Adres\IeC {\'a}\IeC {\v r}ov\IeC {\'a} struktura aplikace}}{24}{figure.10}}
\newlabel{fig:adresarova-struktura}{{10}{24}{Adresářová struktura aplikace}{figure.10}{}}
\@writefile{toc}{\contentsline {subsection}{\numberline {4.6}Modelov\IeC {\'a} vrstva}{25}{subsection.4.6}}
\@writefile{toc}{\contentsline {subsubsection}{\numberline {4.6.1}Rela\IeC {\v c}n\IeC {\'\i } mapov\IeC {\'a}n\IeC {\'\i }}{25}{subsubsection.4.6.1}}
\@writefile{toc}{\contentsline {subsubsection}{\numberline {4.6.2}Validace dat}{25}{subsubsection.4.6.2}}
\newlabel{code:model}{{1}{25}{Modelová třída pro oficiální zadání}{lstlisting.1}{}}
\@writefile{lol}{\contentsline {lstlisting}{\numberline {1}Modelov\IeC {\'a} t\IeC {\v r}\IeC {\'\i }da pro ofici\IeC {\'a}ln\IeC {\'\i } zad\IeC {\'a}n\IeC {\'\i }}{25}{lstlisting.1}}
\@writefile{toc}{\contentsline {subsection}{\numberline {4.7}\IeC {\v R}\IeC {\'\i }d\IeC {\'\i }c\IeC {\'\i } logika}{26}{subsection.4.7}}
\newlabel{kontorolery}{{4.7}{26}{Řídící logika}{subsection.4.7}{}}
\@writefile{toc}{\contentsline {subsubsection}{\numberline {4.7.1}Akce}{26}{subsubsection.4.7.1}}
\@writefile{toc}{\contentsline {subsubsection}{\numberline {4.7.2}Komponenty}{27}{subsubsection.4.7.2}}
\newlabel{komponenty}{{4.7.2}{27}{Komponenty}{subsubsection.4.7.2}{}}
\@writefile{toc}{\contentsline {subsection}{\numberline {4.8}Pohledy}{27}{subsection.4.8}}
\@writefile{toc}{\contentsline {subsubsection}{\numberline {4.8.1}\IeC {\v S}ablony pohled\IeC {\r u}}{27}{subsubsection.4.8.1}}
\@writefile{toc}{\contentsline {subsubsection}{\numberline {4.8.2}Helpery}{27}{subsubsection.4.8.2}}
\newlabel{code:helper}{{2}{28}{Použití helperů}{lstlisting.2}{}}
\@writefile{lol}{\contentsline {lstlisting}{\numberline {2}Pou\IeC {\v z}it\IeC {\'\i } helper\IeC {\r u}}{28}{lstlisting.2}}
\@writefile{toc}{\contentsline {subsubsection}{\numberline {4.8.3}Elementy}{28}{subsubsection.4.8.3}}
\@writefile{toc}{\contentsline {subsubsection}{\numberline {4.8.4}Sd\IeC {\'\i }len\IeC {\'\i } pohled\IeC {\r u}}{29}{subsubsection.4.8.4}}
\newlabel{code:pohledy}{{3}{29}{Sdílený kód pro editační formulář}{lstlisting.3}{}}
\@writefile{lol}{\contentsline {lstlisting}{\numberline {3}Sd\IeC {\'\i }len\IeC {\'y} k\IeC {\'o}d pro edita\IeC {\v c}n\IeC {\'\i } formul\IeC {\'a}\IeC {\v r}}{29}{lstlisting.3}}
\@writefile{toc}{\contentsline {subsubsection}{\numberline {4.8.5}Jazykov\IeC {\'e} variace}{29}{subsubsection.4.8.5}}
\@writefile{toc}{\contentsline {subsection}{\numberline {4.9}Pluginy}{30}{subsection.4.9}}
\newlabel{pluginy-cakephp}{{4.9}{30}{Pluginy}{subsection.4.9}{}}
\@writefile{toc}{\contentsline {subsubsection}{\numberline {4.9.1}BoostCake}{30}{subsubsection.4.9.1}}
\@writefile{toc}{\contentsline {subsubsection}{\numberline {4.9.2}Vlastn\IeC {\'\i } plugin}{30}{subsubsection.4.9.2}}
\@writefile{toc}{\contentsline {subsection}{\numberline {4.10}System rol\IeC {\'\i }}{30}{subsection.4.10}}
\newlabel{system-roli}{{4.10}{30}{System rolí}{subsection.4.10}{}}
\@writefile{toc}{\contentsline {subsubsection}{\numberline {4.10.1}Autoriza\IeC {\v c}n\IeC {\'\i } komponenta}{31}{subsubsection.4.10.1}}
\citation{PRtJB0elO106Gidl}
\@writefile{toc}{\contentsline {subsubsection}{\numberline {4.10.2}Shibboleth}{32}{subsubsection.4.10.2}}
\@writefile{toc}{\contentsline {subsubsection}{\numberline {4.10.3}Altertnativn\IeC {\'\i } p\IeC {\v r}id\IeC {\v e}len\IeC {\'\i } opr\IeC {\'a}vn\IeC {\v e}n\IeC {\'\i }}{32}{subsubsection.4.10.3}}
\@writefile{toc}{\contentsline {subsection}{\numberline {4.11}Export dat}{32}{subsection.4.11}}
\@writefile{toc}{\contentsline {subsection}{\numberline {4.12}N\IeC {\'a}pov\IeC {\v e}da}{33}{subsection.4.12}}
\newlabel{napoveda}{{4.12}{33}{Nápověda}{subsection.4.12}{}}
\@writefile{toc}{\contentsline {subsection}{\numberline {4.13}Testov\IeC {\'a}n\IeC {\'\i } aplikace}{33}{subsection.4.13}}
\newlabel{testovani}{{4.13}{33}{Testování aplikace}{subsection.4.13}{}}
\@writefile{toc}{\contentsline {subsubsection}{\numberline {4.13.1}Jednotkov\IeC {\'e} testov\IeC {\'a}n\IeC {\'\i }}{34}{subsubsection.4.13.1}}
\@writefile{toc}{\contentsline {subsubsection}{\numberline {4.13.2}Integra\IeC {\v c}n\IeC {\'\i } testov\IeC {\'a}n\IeC {\'\i }}{34}{subsubsection.4.13.2}}
\@writefile{toc}{\contentsline {subsubsection}{\numberline {4.13.3}Akcepta\IeC {\v c}n\IeC {\'\i } testov\IeC {\'a}n\IeC {\'\i }}{34}{subsubsection.4.13.3}}
\@writefile{toc}{\contentsline {section}{\numberline {5}Z\IeC {\'a}v\IeC {\v e}r}{35}{section.5}}
\bibcite{5EKmCBUoyUxNVwii}{1}
\bibcite{o463FSQnp332ko0C}{2}
\bibcite{JUo3Sp5xNosLOVuE}{3}
\bibcite{Gilmore2007}{4}
\bibcite{vTQWYgiBXnXc7yLv}{5}
\bibcite{PRtJB0elO106Gidl}{6}
\bibcite{frameworks}{7}
\bibcite{X83Z8mWwxXkYTuWr}{8}
\bibcite{V89bVFrkxtnQJ35T}{9}
\@writefile{toc}{\contentsline {section}{Pou\IeC {\v z}it\IeC {\'a} literatura}{36}{section*.11}}
\@writefile{toc}{\contentsline {section}{Obsah p\IeC {\v r}ilo\IeC {\v z}en\IeC {\'e}ho DVD}{37}{section*.12}}
